/*
WARNING: Do NOT edit the input and output ports in this file in a text
editor if you plan to continue editing the block that represents it in
the Block Editor! File corruption is VERY likely to occur.
*/
/*
Copyright (C) 1991-2013 Altera Corporation
Your use of Altera Corporation's design tools, logic functions 
and other software and tools, and its AMPP partner logic 
functions, and any output files from any of the foregoing 
(including device programming or simulation files), and any 
associated documentation or information are expressly subject 
to the terms and conditions of the Altera Program License 
Subscription Agreement, Altera MegaCore Function License 
Agreement, or other applicable license agreement, including, 
without limitation, that your use is for the sole purpose of 
programming logic devices manufactured by Altera and sold by 
Altera or its authorized distributors.  Please refer to the 
applicable agreement for further details.
*/
(header "graphic" (version "1.4"))
(pin
	(input)
	(rect -208 1064 -40 1080)
	(text "INPUT" (rect 125 0 153 10)(font "Arial" (font_size 6)))
	(text "clk" (rect 5 0 20 12)(font "Arial" ))
	(pt 168 8)
	(drawing
		(line (pt 84 12)(pt 109 12))
		(line (pt 84 4)(pt 109 4))
		(line (pt 113 8)(pt 168 8))
		(line (pt 84 12)(pt 84 4))
		(line (pt 109 4)(pt 113 8))
		(line (pt 109 12)(pt 113 8))
	)
	(text "VCC" (rect 128 7 148 17)(font "Arial" (font_size 6)))
)
(pin
	(input)
	(rect -448 344 -280 360)
	(text "INPUT" (rect 125 0 153 10)(font "Arial" (font_size 6)))
	(text "WE" (rect 5 0 23 12)(font "Arial" ))
	(pt 168 8)
	(drawing
		(line (pt 84 12)(pt 109 12))
		(line (pt 84 4)(pt 109 4))
		(line (pt 113 8)(pt 168 8))
		(line (pt 84 12)(pt 84 4))
		(line (pt 109 4)(pt 113 8))
		(line (pt 109 12)(pt 113 8))
	)
	(text "VCC" (rect 128 7 148 17)(font "Arial" (font_size 6)))
)
(pin
	(input)
	(rect 608 312 784 328)
	(text "INPUT" (rect 15 0 43 10)(font "Arial" (font_size 6)))
	(text "RA_addr[2..0]" (rect 102 0 171 12)(font "Arial" ))
	(pt 0 8)
	(drawing
		(line (pt 84 12)(pt 59 12))
		(line (pt 84 4)(pt 59 4))
		(line (pt 55 8)(pt 0 8))
		(line (pt 84 12)(pt 84 4))
		(line (pt 59 4)(pt 55 8))
		(line (pt 59 12)(pt 55 8))
	)
	(flipy)
	(text "VCC" (rect 20 7 40 17)(font "Arial" (font_size 6)))
)
(pin
	(input)
	(rect 600 656 776 672)
	(text "INPUT" (rect 15 0 43 10)(font "Arial" (font_size 6)))
	(text "RB_addr[2..0]" (rect 102 0 171 12)(font "Arial" ))
	(pt 0 8)
	(drawing
		(line (pt 84 12)(pt 59 12))
		(line (pt 84 4)(pt 59 4))
		(line (pt 55 8)(pt 0 8))
		(line (pt 84 12)(pt 84 4))
		(line (pt 59 4)(pt 55 8))
		(line (pt 59 12)(pt 55 8))
	)
	(flipy)
	(text "VCC" (rect 20 7 40 17)(font "Arial" (font_size 6)))
)
(pin
	(input)
	(rect -480 240 -304 256)
	(text "INPUT" (rect 133 0 161 10)(font "Arial" (font_size 6)))
	(text "WR_addr[2..0]" (rect 5 0 77 12)(font "Arial" ))
	(pt 176 8)
	(drawing
		(line (pt 92 12)(pt 117 12))
		(line (pt 92 4)(pt 117 4))
		(line (pt 121 8)(pt 176 8))
		(line (pt 92 12)(pt 92 4))
		(line (pt 117 4)(pt 121 8))
		(line (pt 117 12)(pt 121 8))
	)
	(text "VCC" (rect 136 7 156 17)(font "Arial" (font_size 6)))
)
(pin
	(input)
	(rect -248 56 -72 72)
	(text "INPUT" (rect 133 0 161 10)(font "Arial" (font_size 6)))
	(text "WR_data[15..0]" (rect 5 0 83 12)(font "Arial" ))
	(pt 176 8)
	(drawing
		(line (pt 92 12)(pt 117 12))
		(line (pt 92 4)(pt 117 4))
		(line (pt 121 8)(pt 176 8))
		(line (pt 92 12)(pt 92 4))
		(line (pt 117 4)(pt 121 8))
		(line (pt 117 12)(pt 121 8))
	)
	(text "VCC" (rect 136 7 156 17)(font "Arial" (font_size 6)))
)
(pin
	(output)
	(rect 776 432 952 448)
	(text "OUTPUT" (rect 1 0 39 10)(font "Arial" (font_size 6)))
	(text "RB_data[15..0]" (rect 90 0 164 12)(font "Arial" ))
	(pt 0 8)
	(drawing
		(line (pt 0 8)(pt 52 8))
		(line (pt 52 4)(pt 78 4))
		(line (pt 52 12)(pt 78 12))
		(line (pt 52 12)(pt 52 4))
		(line (pt 78 4)(pt 82 8))
		(line (pt 82 8)(pt 78 12))
		(line (pt 78 12)(pt 82 8))
	)
)
(pin
	(output)
	(rect 776 88 952 104)
	(text "OUTPUT" (rect 1 0 39 10)(font "Arial" (font_size 6)))
	(text "RA_data[15..0]" (rect 90 0 164 12)(font "Arial" ))
	(pt 0 8)
	(drawing
		(line (pt 0 8)(pt 52 8))
		(line (pt 52 4)(pt 78 4))
		(line (pt 52 12)(pt 78 12))
		(line (pt 52 12)(pt 52 4))
		(line (pt 78 4)(pt 82 8))
		(line (pt 82 8)(pt 78 12))
		(line (pt 78 12)(pt 82 8))
	)
)
(symbol
	(rect 600 64 752 288)
	(text "sixteen_bits_8to1mux" (rect 5 0 154 16)(font "Arial" (font_size 10)))
	(text "inst" (rect 8 208 25 220)(font "Arial" ))
	(port
		(pt 0 32)
		(input)
		(text "A0[15..0]" (rect 0 0 51 14)(font "Arial" (font_size 8)))
		(text "A0[15..0]" (rect 21 27 72 41)(font "Arial" (font_size 8)))
		(line (pt 0 32)(pt 16 32)(line_width 3))
	)
	(port
		(pt 0 48)
		(input)
		(text "A1[15..0]" (rect 0 0 51 14)(font "Arial" (font_size 8)))
		(text "A1[15..0]" (rect 21 43 72 57)(font "Arial" (font_size 8)))
		(line (pt 0 48)(pt 16 48)(line_width 3))
	)
	(port
		(pt 0 64)
		(input)
		(text "A2[15..0]" (rect 0 0 51 14)(font "Arial" (font_size 8)))
		(text "A2[15..0]" (rect 21 59 72 73)(font "Arial" (font_size 8)))
		(line (pt 0 64)(pt 16 64)(line_width 3))
	)
	(port
		(pt 0 80)
		(input)
		(text "A3[15..0]" (rect 0 0 51 14)(font "Arial" (font_size 8)))
		(text "A3[15..0]" (rect 21 75 72 89)(font "Arial" (font_size 8)))
		(line (pt 0 80)(pt 16 80)(line_width 3))
	)
	(port
		(pt 0 96)
		(input)
		(text "A4[15..0]" (rect 0 0 51 14)(font "Arial" (font_size 8)))
		(text "A4[15..0]" (rect 21 91 72 105)(font "Arial" (font_size 8)))
		(line (pt 0 96)(pt 16 96)(line_width 3))
	)
	(port
		(pt 0 112)
		(input)
		(text "A5[15..0]" (rect 0 0 51 14)(font "Arial" (font_size 8)))
		(text "A5[15..0]" (rect 21 107 72 121)(font "Arial" (font_size 8)))
		(line (pt 0 112)(pt 16 112)(line_width 3))
	)
	(port
		(pt 0 128)
		(input)
		(text "A6[15..0]" (rect 0 0 51 14)(font "Arial" (font_size 8)))
		(text "A6[15..0]" (rect 21 123 72 137)(font "Arial" (font_size 8)))
		(line (pt 0 128)(pt 16 128)(line_width 3))
	)
	(port
		(pt 0 144)
		(input)
		(text "A7[15..0]" (rect 0 0 51 14)(font "Arial" (font_size 8)))
		(text "A7[15..0]" (rect 21 139 72 153)(font "Arial" (font_size 8)))
		(line (pt 0 144)(pt 16 144)(line_width 3))
	)
	(port
		(pt 0 160)
		(input)
		(text "selection0" (rect 0 0 57 14)(font "Arial" (font_size 8)))
		(text "selection0" (rect 21 155 78 169)(font "Arial" (font_size 8)))
		(line (pt 0 160)(pt 16 160))
	)
	(port
		(pt 0 176)
		(input)
		(text "selection1" (rect 0 0 57 14)(font "Arial" (font_size 8)))
		(text "selection1" (rect 21 171 78 185)(font "Arial" (font_size 8)))
		(line (pt 0 176)(pt 16 176))
	)
	(port
		(pt 0 192)
		(input)
		(text "selection2" (rect 0 0 57 14)(font "Arial" (font_size 8)))
		(text "selection2" (rect 21 187 78 201)(font "Arial" (font_size 8)))
		(line (pt 0 192)(pt 16 192))
	)
	(port
		(pt 152 32)
		(output)
		(text "Y[15..0]" (rect 0 0 44 14)(font "Arial" (font_size 8)))
		(text "Y[15..0]" (rect 87 27 131 41)(font "Arial" (font_size 8)))
		(line (pt 152 32)(pt 136 32)(line_width 3))
	)
	(drawing
		(rectangle (rect 16 16 136 208))
	)
)
(symbol
	(rect 88 152 256 248)
	(text "sixteen_bits_register" (rect 5 0 146 16)(font "Arial" (font_size 10)))
	(text "inst8" (rect 8 80 31 92)(font "Arial" ))
	(port
		(pt 0 32)
		(input)
		(text "din[15..0]" (rect 0 0 51 14)(font "Arial" (font_size 8)))
		(text "din[15..0]" (rect 21 27 72 41)(font "Arial" (font_size 8)))
		(line (pt 0 32)(pt 16 32)(line_width 3))
	)
	(port
		(pt 0 48)
		(input)
		(text "clk" (rect 0 0 15 14)(font "Arial" (font_size 8)))
		(text "clk" (rect 21 43 36 57)(font "Arial" (font_size 8)))
		(line (pt 0 48)(pt 16 48))
	)
	(port
		(pt 0 64)
		(input)
		(text "load" (rect 0 0 23 14)(font "Arial" (font_size 8)))
		(text "load" (rect 21 59 44 73)(font "Arial" (font_size 8)))
		(line (pt 0 64)(pt 16 64))
	)
	(port
		(pt 168 32)
		(output)
		(text "qout[15..0]" (rect 0 0 60 14)(font "Arial" (font_size 8)))
		(text "qout[15..0]" (rect 87 27 147 41)(font "Arial" (font_size 8)))
		(line (pt 168 32)(pt 152 32)(line_width 3))
	)
	(drawing
		(rectangle (rect 16 16 152 80))
	)
)
(symbol
	(rect 88 272 256 368)
	(text "sixteen_bits_register" (rect 5 0 146 16)(font "Arial" (font_size 10)))
	(text "inst9" (rect 8 80 31 92)(font "Arial" ))
	(port
		(pt 0 32)
		(input)
		(text "din[15..0]" (rect 0 0 51 14)(font "Arial" (font_size 8)))
		(text "din[15..0]" (rect 21 27 72 41)(font "Arial" (font_size 8)))
		(line (pt 0 32)(pt 16 32)(line_width 3))
	)
	(port
		(pt 0 48)
		(input)
		(text "clk" (rect 0 0 15 14)(font "Arial" (font_size 8)))
		(text "clk" (rect 21 43 36 57)(font "Arial" (font_size 8)))
		(line (pt 0 48)(pt 16 48))
	)
	(port
		(pt 0 64)
		(input)
		(text "load" (rect 0 0 23 14)(font "Arial" (font_size 8)))
		(text "load" (rect 21 59 44 73)(font "Arial" (font_size 8)))
		(line (pt 0 64)(pt 16 64))
	)
	(port
		(pt 168 32)
		(output)
		(text "qout[15..0]" (rect 0 0 60 14)(font "Arial" (font_size 8)))
		(text "qout[15..0]" (rect 87 27 147 41)(font "Arial" (font_size 8)))
		(line (pt 168 32)(pt 152 32)(line_width 3))
	)
	(drawing
		(rectangle (rect 16 16 152 80))
	)
)
(symbol
	(rect 88 392 256 488)
	(text "sixteen_bits_register" (rect 5 0 146 16)(font "Arial" (font_size 10)))
	(text "inst10" (rect 8 80 37 92)(font "Arial" ))
	(port
		(pt 0 32)
		(input)
		(text "din[15..0]" (rect 0 0 51 14)(font "Arial" (font_size 8)))
		(text "din[15..0]" (rect 21 27 72 41)(font "Arial" (font_size 8)))
		(line (pt 0 32)(pt 16 32)(line_width 3))
	)
	(port
		(pt 0 48)
		(input)
		(text "clk" (rect 0 0 15 14)(font "Arial" (font_size 8)))
		(text "clk" (rect 21 43 36 57)(font "Arial" (font_size 8)))
		(line (pt 0 48)(pt 16 48))
	)
	(port
		(pt 0 64)
		(input)
		(text "load" (rect 0 0 23 14)(font "Arial" (font_size 8)))
		(text "load" (rect 21 59 44 73)(font "Arial" (font_size 8)))
		(line (pt 0 64)(pt 16 64))
	)
	(port
		(pt 168 32)
		(output)
		(text "qout[15..0]" (rect 0 0 60 14)(font "Arial" (font_size 8)))
		(text "qout[15..0]" (rect 87 27 147 41)(font "Arial" (font_size 8)))
		(line (pt 168 32)(pt 152 32)(line_width 3))
	)
	(drawing
		(rectangle (rect 16 16 152 80))
	)
)
(symbol
	(rect 88 32 256 128)
	(text "sixteen_bits_register" (rect 5 0 146 16)(font "Arial" (font_size 10)))
	(text "inst11" (rect 8 80 37 92)(font "Arial" ))
	(port
		(pt 0 32)
		(input)
		(text "din[15..0]" (rect 0 0 51 14)(font "Arial" (font_size 8)))
		(text "din[15..0]" (rect 21 27 72 41)(font "Arial" (font_size 8)))
		(line (pt 0 32)(pt 16 32)(line_width 3))
	)
	(port
		(pt 0 48)
		(input)
		(text "clk" (rect 0 0 15 14)(font "Arial" (font_size 8)))
		(text "clk" (rect 21 43 36 57)(font "Arial" (font_size 8)))
		(line (pt 0 48)(pt 16 48))
	)
	(port
		(pt 0 64)
		(input)
		(text "load" (rect 0 0 23 14)(font "Arial" (font_size 8)))
		(text "load" (rect 21 59 44 73)(font "Arial" (font_size 8)))
		(line (pt 0 64)(pt 16 64))
	)
	(port
		(pt 168 32)
		(output)
		(text "qout[15..0]" (rect 0 0 60 14)(font "Arial" (font_size 8)))
		(text "qout[15..0]" (rect 87 27 147 41)(font "Arial" (font_size 8)))
		(line (pt 168 32)(pt 152 32)(line_width 3))
	)
	(drawing
		(rectangle (rect 16 16 152 80))
	)
)
(symbol
	(rect 600 408 752 632)
	(text "sixteen_bits_8to1mux" (rect 5 0 154 16)(font "Arial" (font_size 10)))
	(text "inst12" (rect 8 208 37 220)(font "Arial" ))
	(port
		(pt 0 32)
		(input)
		(text "A0[15..0]" (rect 0 0 51 14)(font "Arial" (font_size 8)))
		(text "A0[15..0]" (rect 21 27 72 41)(font "Arial" (font_size 8)))
		(line (pt 0 32)(pt 16 32)(line_width 3))
	)
	(port
		(pt 0 48)
		(input)
		(text "A1[15..0]" (rect 0 0 51 14)(font "Arial" (font_size 8)))
		(text "A1[15..0]" (rect 21 43 72 57)(font "Arial" (font_size 8)))
		(line (pt 0 48)(pt 16 48)(line_width 3))
	)
	(port
		(pt 0 64)
		(input)
		(text "A2[15..0]" (rect 0 0 51 14)(font "Arial" (font_size 8)))
		(text "A2[15..0]" (rect 21 59 72 73)(font "Arial" (font_size 8)))
		(line (pt 0 64)(pt 16 64)(line_width 3))
	)
	(port
		(pt 0 80)
		(input)
		(text "A3[15..0]" (rect 0 0 51 14)(font "Arial" (font_size 8)))
		(text "A3[15..0]" (rect 21 75 72 89)(font "Arial" (font_size 8)))
		(line (pt 0 80)(pt 16 80)(line_width 3))
	)
	(port
		(pt 0 96)
		(input)
		(text "A4[15..0]" (rect 0 0 51 14)(font "Arial" (font_size 8)))
		(text "A4[15..0]" (rect 21 91 72 105)(font "Arial" (font_size 8)))
		(line (pt 0 96)(pt 16 96)(line_width 3))
	)
	(port
		(pt 0 112)
		(input)
		(text "A5[15..0]" (rect 0 0 51 14)(font "Arial" (font_size 8)))
		(text "A5[15..0]" (rect 21 107 72 121)(font "Arial" (font_size 8)))
		(line (pt 0 112)(pt 16 112)(line_width 3))
	)
	(port
		(pt 0 128)
		(input)
		(text "A6[15..0]" (rect 0 0 51 14)(font "Arial" (font_size 8)))
		(text "A6[15..0]" (rect 21 123 72 137)(font "Arial" (font_size 8)))
		(line (pt 0 128)(pt 16 128)(line_width 3))
	)
	(port
		(pt 0 144)
		(input)
		(text "A7[15..0]" (rect 0 0 51 14)(font "Arial" (font_size 8)))
		(text "A7[15..0]" (rect 21 139 72 153)(font "Arial" (font_size 8)))
		(line (pt 0 144)(pt 16 144)(line_width 3))
	)
	(port
		(pt 0 160)
		(input)
		(text "selection0" (rect 0 0 57 14)(font "Arial" (font_size 8)))
		(text "selection0" (rect 21 155 78 169)(font "Arial" (font_size 8)))
		(line (pt 0 160)(pt 16 160))
	)
	(port
		(pt 0 176)
		(input)
		(text "selection1" (rect 0 0 57 14)(font "Arial" (font_size 8)))
		(text "selection1" (rect 21 171 78 185)(font "Arial" (font_size 8)))
		(line (pt 0 176)(pt 16 176))
	)
	(port
		(pt 0 192)
		(input)
		(text "selection2" (rect 0 0 57 14)(font "Arial" (font_size 8)))
		(text "selection2" (rect 21 187 78 201)(font "Arial" (font_size 8)))
		(line (pt 0 192)(pt 16 192))
	)
	(port
		(pt 152 32)
		(output)
		(text "Y[15..0]" (rect 0 0 44 14)(font "Arial" (font_size 8)))
		(text "Y[15..0]" (rect 87 27 131 41)(font "Arial" (font_size 8)))
		(line (pt 152 32)(pt 136 32)(line_width 3))
	)
	(drawing
		(rectangle (rect 16 16 136 208))
	)
)
(symbol
	(rect 88 512 256 608)
	(text "sixteen_bits_register" (rect 5 0 146 16)(font "Arial" (font_size 10)))
	(text "inst13" (rect 8 80 37 92)(font "Arial" ))
	(port
		(pt 0 32)
		(input)
		(text "din[15..0]" (rect 0 0 51 14)(font "Arial" (font_size 8)))
		(text "din[15..0]" (rect 21 27 72 41)(font "Arial" (font_size 8)))
		(line (pt 0 32)(pt 16 32)(line_width 3))
	)
	(port
		(pt 0 48)
		(input)
		(text "clk" (rect 0 0 15 14)(font "Arial" (font_size 8)))
		(text "clk" (rect 21 43 36 57)(font "Arial" (font_size 8)))
		(line (pt 0 48)(pt 16 48))
	)
	(port
		(pt 0 64)
		(input)
		(text "load" (rect 0 0 23 14)(font "Arial" (font_size 8)))
		(text "load" (rect 21 59 44 73)(font "Arial" (font_size 8)))
		(line (pt 0 64)(pt 16 64))
	)
	(port
		(pt 168 32)
		(output)
		(text "qout[15..0]" (rect 0 0 60 14)(font "Arial" (font_size 8)))
		(text "qout[15..0]" (rect 87 27 147 41)(font "Arial" (font_size 8)))
		(line (pt 168 32)(pt 152 32)(line_width 3))
	)
	(drawing
		(rectangle (rect 16 16 152 80))
	)
)
(symbol
	(rect 88 632 256 728)
	(text "sixteen_bits_register" (rect 5 0 146 16)(font "Arial" (font_size 10)))
	(text "inst14" (rect 8 80 37 92)(font "Arial" ))
	(port
		(pt 0 32)
		(input)
		(text "din[15..0]" (rect 0 0 51 14)(font "Arial" (font_size 8)))
		(text "din[15..0]" (rect 21 27 72 41)(font "Arial" (font_size 8)))
		(line (pt 0 32)(pt 16 32)(line_width 3))
	)
	(port
		(pt 0 48)
		(input)
		(text "clk" (rect 0 0 15 14)(font "Arial" (font_size 8)))
		(text "clk" (rect 21 43 36 57)(font "Arial" (font_size 8)))
		(line (pt 0 48)(pt 16 48))
	)
	(port
		(pt 0 64)
		(input)
		(text "load" (rect 0 0 23 14)(font "Arial" (font_size 8)))
		(text "load" (rect 21 59 44 73)(font "Arial" (font_size 8)))
		(line (pt 0 64)(pt 16 64))
	)
	(port
		(pt 168 32)
		(output)
		(text "qout[15..0]" (rect 0 0 60 14)(font "Arial" (font_size 8)))
		(text "qout[15..0]" (rect 87 27 147 41)(font "Arial" (font_size 8)))
		(line (pt 168 32)(pt 152 32)(line_width 3))
	)
	(drawing
		(rectangle (rect 16 16 152 80))
	)
)
(symbol
	(rect 88 752 256 848)
	(text "sixteen_bits_register" (rect 5 0 146 16)(font "Arial" (font_size 10)))
	(text "inst15" (rect 8 80 37 92)(font "Arial" ))
	(port
		(pt 0 32)
		(input)
		(text "din[15..0]" (rect 0 0 51 14)(font "Arial" (font_size 8)))
		(text "din[15..0]" (rect 21 27 72 41)(font "Arial" (font_size 8)))
		(line (pt 0 32)(pt 16 32)(line_width 3))
	)
	(port
		(pt 0 48)
		(input)
		(text "clk" (rect 0 0 15 14)(font "Arial" (font_size 8)))
		(text "clk" (rect 21 43 36 57)(font "Arial" (font_size 8)))
		(line (pt 0 48)(pt 16 48))
	)
	(port
		(pt 0 64)
		(input)
		(text "load" (rect 0 0 23 14)(font "Arial" (font_size 8)))
		(text "load" (rect 21 59 44 73)(font "Arial" (font_size 8)))
		(line (pt 0 64)(pt 16 64))
	)
	(port
		(pt 168 32)
		(output)
		(text "qout[15..0]" (rect 0 0 60 14)(font "Arial" (font_size 8)))
		(text "qout[15..0]" (rect 87 27 147 41)(font "Arial" (font_size 8)))
		(line (pt 168 32)(pt 152 32)(line_width 3))
	)
	(drawing
		(rectangle (rect 16 16 152 80))
	)
)
(symbol
	(rect 88 872 256 968)
	(text "sixteen_bits_register" (rect 5 0 146 16)(font "Arial" (font_size 10)))
	(text "inst16" (rect 8 80 37 92)(font "Arial" ))
	(port
		(pt 0 32)
		(input)
		(text "din[15..0]" (rect 0 0 51 14)(font "Arial" (font_size 8)))
		(text "din[15..0]" (rect 21 27 72 41)(font "Arial" (font_size 8)))
		(line (pt 0 32)(pt 16 32)(line_width 3))
	)
	(port
		(pt 0 48)
		(input)
		(text "clk" (rect 0 0 15 14)(font "Arial" (font_size 8)))
		(text "clk" (rect 21 43 36 57)(font "Arial" (font_size 8)))
		(line (pt 0 48)(pt 16 48))
	)
	(port
		(pt 0 64)
		(input)
		(text "load" (rect 0 0 23 14)(font "Arial" (font_size 8)))
		(text "load" (rect 21 59 44 73)(font "Arial" (font_size 8)))
		(line (pt 0 64)(pt 16 64))
	)
	(port
		(pt 168 32)
		(output)
		(text "qout[15..0]" (rect 0 0 60 14)(font "Arial" (font_size 8)))
		(text "qout[15..0]" (rect 87 27 147 41)(font "Arial" (font_size 8)))
		(line (pt 168 32)(pt 152 32)(line_width 3))
	)
	(drawing
		(rectangle (rect 16 16 152 80))
	)
)
(symbol
	(rect -216 256 -120 448)
	(text "decoder_3to8" (rect 5 0 97 16)(font "Arial" (font_size 10)))
	(text "inst18" (rect 8 176 37 188)(font "Arial" ))
	(port
		(pt 0 64)
		(input)
		(text "X2" (rect 0 0 15 14)(font "Arial" (font_size 8)))
		(text "X2" (rect 21 59 36 73)(font "Arial" (font_size 8)))
		(line (pt 0 64)(pt 16 64))
	)
	(port
		(pt 0 48)
		(input)
		(text "X1" (rect 0 0 15 14)(font "Arial" (font_size 8)))
		(text "X1" (rect 21 43 36 57)(font "Arial" (font_size 8)))
		(line (pt 0 48)(pt 16 48))
	)
	(port
		(pt 0 32)
		(input)
		(text "X0" (rect 0 0 15 14)(font "Arial" (font_size 8)))
		(text "X0" (rect 21 27 36 41)(font "Arial" (font_size 8)))
		(line (pt 0 32)(pt 16 32))
	)
	(port
		(pt 0 96)
		(input)
		(text "WE" (rect 0 0 18 14)(font "Arial" (font_size 8)))
		(text "WE" (rect 21 91 39 105)(font "Arial" (font_size 8)))
		(line (pt 0 96)(pt 16 96))
	)
	(port
		(pt 96 136)
		(output)
		(text "Y7" (rect 0 0 16 14)(font "Arial" (font_size 8)))
		(text "Y7" (rect 59 131 75 145)(font "Arial" (font_size 8)))
		(line (pt 96 136)(pt 80 136))
	)
	(port
		(pt 96 120)
		(output)
		(text "Y6" (rect 0 0 16 14)(font "Arial" (font_size 8)))
		(text "Y6" (rect 59 115 75 129)(font "Arial" (font_size 8)))
		(line (pt 96 120)(pt 80 120))
	)
	(port
		(pt 96 104)
		(output)
		(text "Y5" (rect 0 0 16 14)(font "Arial" (font_size 8)))
		(text "Y5" (rect 59 99 75 113)(font "Arial" (font_size 8)))
		(line (pt 96 104)(pt 80 104))
	)
	(port
		(pt 96 88)
		(output)
		(text "Y4" (rect 0 0 16 14)(font "Arial" (font_size 8)))
		(text "Y4" (rect 59 83 75 97)(font "Arial" (font_size 8)))
		(line (pt 96 88)(pt 80 88))
	)
	(port
		(pt 96 24)
		(output)
		(text "Y0" (rect 0 0 16 14)(font "Arial" (font_size 8)))
		(text "Y0" (rect 59 19 75 33)(font "Arial" (font_size 8)))
		(line (pt 96 24)(pt 80 24))
	)
	(port
		(pt 96 40)
		(output)
		(text "Y1" (rect 0 0 16 14)(font "Arial" (font_size 8)))
		(text "Y1" (rect 59 35 75 49)(font "Arial" (font_size 8)))
		(line (pt 96 40)(pt 80 40))
	)
	(port
		(pt 96 56)
		(output)
		(text "Y2" (rect 0 0 16 14)(font "Arial" (font_size 8)))
		(text "Y2" (rect 59 51 75 65)(font "Arial" (font_size 8)))
		(line (pt 96 56)(pt 80 56))
	)
	(port
		(pt 96 72)
		(output)
		(text "Y3" (rect 0 0 16 14)(font "Arial" (font_size 8)))
		(text "Y3" (rect 59 67 75 81)(font "Arial" (font_size 8)))
		(line (pt 96 72)(pt 80 72))
	)
	(drawing
		(rectangle (rect 16 16 80 176))
	)
)
(connector
	(pt 304 64)
	(pt 256 64)
	(bus)
)
(connector
	(pt 256 184)
	(pt 328 184)
	(bus)
)
(connector
	(pt 256 304)
	(pt 352 304)
	(bus)
)
(connector
	(pt 256 424)
	(pt 376 424)
	(bus)
)
(connector
	(pt 304 96)
	(pt 600 96)
	(bus)
)
(connector
	(pt 328 112)
	(pt 600 112)
	(bus)
)
(connector
	(pt 352 128)
	(pt 600 128)
	(bus)
)
(connector
	(pt 376 144)
	(pt 600 144)
	(bus)
)
(connector
	(pt 304 440)
	(pt 600 440)
	(bus)
)
(connector
	(pt 328 456)
	(pt 600 456)
	(bus)
)
(connector
	(pt 352 472)
	(pt 600 472)
	(bus)
)
(connector
	(pt 376 488)
	(pt 600 488)
	(bus)
)
(connector
	(pt 304 64)
	(pt 304 96)
	(bus)
)
(connector
	(pt 304 96)
	(pt 304 440)
	(bus)
)
(connector
	(pt 328 112)
	(pt 328 184)
	(bus)
)
(connector
	(pt 328 184)
	(pt 328 456)
	(bus)
)
(connector
	(pt 352 128)
	(pt 352 304)
	(bus)
)
(connector
	(pt 352 304)
	(pt 352 472)
	(bus)
)
(connector
	(pt 376 144)
	(pt 376 424)
	(bus)
)
(connector
	(pt 376 424)
	(pt 376 488)
	(bus)
)
(connector
	(pt 600 160)
	(pt 400 160)
	(bus)
)
(connector
	(pt 600 504)
	(pt 400 504)
	(bus)
)
(connector
	(pt 400 544)
	(pt 256 544)
	(bus)
)
(connector
	(pt 400 160)
	(pt 400 504)
	(bus)
)
(connector
	(pt 400 504)
	(pt 400 544)
	(bus)
)
(connector
	(pt 600 176)
	(pt 424 176)
	(bus)
)
(connector
	(pt 600 520)
	(pt 424 520)
	(bus)
)
(connector
	(pt 424 176)
	(pt 424 520)
	(bus)
)
(connector
	(pt 424 664)
	(pt 256 664)
	(bus)
)
(connector
	(pt 424 520)
	(pt 424 664)
	(bus)
)
(connector
	(pt 600 192)
	(pt 448 192)
	(bus)
)
(connector
	(pt 600 536)
	(pt 448 536)
	(bus)
)
(connector
	(pt 448 192)
	(pt 448 536)
	(bus)
)
(connector
	(pt 448 784)
	(pt 256 784)
	(bus)
)
(connector
	(pt 448 536)
	(pt 448 784)
	(bus)
)
(connector
	(pt 600 208)
	(pt 472 208)
	(bus)
)
(connector
	(pt 600 552)
	(pt 472 552)
	(bus)
)
(connector
	(pt 472 208)
	(pt 472 552)
	(bus)
)
(connector
	(pt 472 904)
	(pt 256 904)
	(bus)
)
(connector
	(pt 472 552)
	(pt 472 904)
	(bus)
)
(connector
	(pt 88 920)
	(pt 64 920)
)
(connector
	(pt -40 1072)
	(pt 64 1072)
)
(connector
	(pt 88 800)
	(pt 64 800)
)
(connector
	(pt 64 920)
	(pt 64 1072)
)
(connector
	(pt 88 680)
	(pt 64 680)
)
(connector
	(pt 64 800)
	(pt 64 920)
)
(connector
	(pt 88 560)
	(pt 64 560)
)
(connector
	(pt 64 680)
	(pt 64 800)
)
(connector
	(pt 88 440)
	(pt 64 440)
)
(connector
	(pt 64 560)
	(pt 64 680)
)
(connector
	(pt 88 320)
	(pt 64 320)
)
(connector
	(pt 64 440)
	(pt 64 560)
)
(connector
	(pt 88 200)
	(pt 64 200)
)
(connector
	(pt 64 320)
	(pt 64 440)
)
(connector
	(pt 88 80)
	(pt 64 80)
)
(connector
	(pt 64 80)
	(pt 64 200)
)
(connector
	(pt 64 200)
	(pt 64 320)
)
(connector
	(pt 40 184)
	(pt 88 184)
	(bus)
)
(connector
	(pt 88 64)
	(pt 40 64)
	(bus)
)
(connector
	(pt 40 64)
	(pt -72 64)
	(bus)
)
(connector
	(pt 40 304)
	(pt 88 304)
	(bus)
)
(connector
	(pt 40 64)
	(pt 40 184)
	(bus)
)
(connector
	(pt 40 424)
	(pt 88 424)
	(bus)
)
(connector
	(pt 40 184)
	(pt 40 304)
	(bus)
)
(connector
	(pt 40 544)
	(pt 88 544)
	(bus)
)
(connector
	(pt 40 304)
	(pt 40 424)
	(bus)
)
(connector
	(pt 40 664)
	(pt 88 664)
	(bus)
)
(connector
	(pt 40 424)
	(pt 40 544)
	(bus)
)
(connector
	(pt 40 784)
	(pt 88 784)
	(bus)
)
(connector
	(pt 40 544)
	(pt 40 664)
	(bus)
)
(connector
	(pt 40 904)
	(pt 88 904)
	(bus)
)
(connector
	(pt 40 664)
	(pt 40 784)
	(bus)
)
(connector
	(pt 40 784)
	(pt 40 904)
	(bus)
)
(connector
	(pt 88 96)
	(pt -104 96)
)
(connector
	(pt -104 96)
	(pt -104 280)
)
(connector
	(pt -120 280)
	(pt -104 280)
)
(connector
	(pt 88 216)
	(pt -80 216)
)
(connector
	(pt -80 216)
	(pt -80 296)
)
(connector
	(pt -80 296)
	(pt -120 296)
)
(connector
	(pt -120 312)
	(pt -56 312)
)
(connector
	(pt -56 312)
	(pt -56 240)
)
(connector
	(pt 88 336)
	(pt 16 336)
)
(connector
	(pt -56 240)
	(pt 16 240)
)
(connector
	(pt 16 336)
	(pt 16 240)
)
(connector
	(pt 88 456)
	(pt 16 456)
)
(connector
	(pt -120 328)
	(pt -8 328)
)
(connector
	(pt 16 456)
	(pt 16 360)
)
(connector
	(pt 16 360)
	(pt -8 360)
)
(connector
	(pt -8 328)
	(pt -8 360)
)
(connector
	(pt -120 344)
	(pt -32 344)
)
(connector
	(pt -32 376)
	(pt -8 376)
)
(connector
	(pt -32 344)
	(pt -32 376)
)
(connector
	(pt 88 576)
	(pt -8 576)
)
(connector
	(pt -8 376)
	(pt -8 576)
)
(connector
	(pt 88 696)
	(pt -32 696)
)
(connector
	(pt -32 400)
	(pt -56 400)
)
(connector
	(pt -56 400)
	(pt -56 360)
)
(connector
	(pt -32 696)
	(pt -32 400)
)
(connector
	(pt -120 360)
	(pt -56 360)
)
(connector
	(pt -120 376)
	(pt -80 376)
)
(connector
	(pt 88 816)
	(pt -80 816)
)
(connector
	(pt -80 376)
	(pt -80 816)
)
(connector
	(pt -120 392)
	(pt -104 392)
)
(connector
	(pt -104 936)
	(pt 88 936)
)
(connector
	(pt -104 392)
	(pt -104 936)
)
(connector
	(pt -216 352)
	(pt -280 352)
)
(connector
	(text "RA_addr[1]" (rect 576 224 631 236)(font "Arial" ))
	(pt 600 240)
	(pt 576 240)
)
(connector
	(text "RA_addr[0]" (rect 576 208 631 220)(font "Arial" ))
	(pt 600 224)
	(pt 576 224)
)
(connector
	(pt 576 216)
	(pt 576 224)
	(bus)
)
(connector
	(pt 576 224)
	(pt 576 240)
	(bus)
)
(connector
	(text "RA_addr[2]" (rect 576 240 631 252)(font "Arial" ))
	(pt 600 256)
	(pt 576 256)
)
(connector
	(pt 608 320)
	(pt 576 320)
	(bus)
)
(connector
	(pt 576 240)
	(pt 576 256)
	(bus)
)
(connector
	(pt 576 256)
	(pt 576 320)
	(bus)
)
(connector
	(pt 600 664)
	(pt 576 664)
	(bus)
)
(connector
	(pt 576 560)
	(pt 576 568)
	(bus)
)
(connector
	(text "RB_addr[0]" (rect 576 552 631 564)(font "Arial" ))
	(pt 600 568)
	(pt 576 568)
)
(connector
	(pt 576 568)
	(pt 576 584)
	(bus)
)
(connector
	(text "RB_addr[1]" (rect 576 568 631 580)(font "Arial" ))
	(pt 600 584)
	(pt 576 584)
)
(connector
	(pt 576 584)
	(pt 576 600)
	(bus)
)
(connector
	(pt 576 600)
	(pt 576 664)
	(bus)
)
(connector
	(text "RB_addr[2]" (rect 576 584 631 596)(font "Arial" ))
	(pt 600 600)
	(pt 576 600)
)
(connector
	(pt 752 440)
	(pt 776 440)
	(bus)
)
(connector
	(pt 752 96)
	(pt 776 96)
	(bus)
)
(connector
	(pt -304 248)
	(pt -240 248)
	(bus)
)
(connector
	(pt -240 248)
	(pt -240 288)
	(bus)
)
(connector
	(pt -240 288)
	(pt -240 304)
	(bus)
)
(connector
	(pt -240 304)
	(pt -240 320)
	(bus)
)
(connector
	(pt -240 320)
	(pt -240 328)
	(bus)
)
(connector
	(text "WR_addr[0]" (rect -240 272 -181 284)(font "Arial" ))
	(pt -216 288)
	(pt -240 288)
)
(connector
	(text "WR_addr[1]" (rect -240 288 -181 300)(font "Arial" ))
	(pt -216 304)
	(pt -240 304)
)
(connector
	(text "WR_addr[2]" (rect -240 304 -181 316)(font "Arial" ))
	(pt -216 320)
	(pt -240 320)
)
(junction (pt 304 96))
(junction (pt 328 184))
(junction (pt 352 304))
(junction (pt 376 424))
(junction (pt 400 504))
(junction (pt 424 520))
(junction (pt 448 536))
(junction (pt 472 552))
(junction (pt 64 920))
(junction (pt 64 800))
(junction (pt 64 680))
(junction (pt 64 560))
(junction (pt 64 440))
(junction (pt 64 320))
(junction (pt 64 200))
(junction (pt 40 64))
(junction (pt 40 184))
(junction (pt 40 304))
(junction (pt 40 424))
(junction (pt 40 544))
(junction (pt 40 664))
(junction (pt 40 784))
(junction (pt 576 240))
(junction (pt 576 256))
(junction (pt 576 224))
(junction (pt 576 568))
(junction (pt 576 584))
(junction (pt 576 600))
(junction (pt -240 288))
(junction (pt -240 304))
(junction (pt -240 320))
