/*
WARNING: Do NOT edit the input and output ports in this file in a text
editor if you plan to continue editing the block that represents it in
the Block Editor! File corruption is VERY likely to occur.
*/
/*
Copyright (C) 2018  Intel Corporation. All rights reserved.
Your use of Intel Corporation's design tools, logic functions 
and other software and tools, and its AMPP partner logic 
functions, and any output files from any of the foregoing 
(including device programming or simulation files), and any 
associated documentation or information are expressly subject 
to the terms and conditions of the Intel Program License 
Subscription Agreement, the Intel Quartus Prime License Agreement,
the Intel FPGA IP License Agreement, or other applicable license
agreement, including, without limitation, that your use is for
the sole purpose of programming logic devices manufactured by
Intel and sold by Intel or its authorized distributors.  Please
refer to the applicable agreement for further details.
*/
(header "graphic" (version "1.4"))
(pin
	(input)
	(rect -120 88 48 104)
	(text "INPUT" (rect 125 0 153 10)(font "Arial" (font_size 6)))
	(text "A0[15..0]" (rect 5 0 49 12)(font "Arial" ))
	(pt 168 8)
	(drawing
		(line (pt 84 12)(pt 109 12))
		(line (pt 84 4)(pt 109 4))
		(line (pt 113 8)(pt 168 8))
		(line (pt 84 12)(pt 84 4))
		(line (pt 109 4)(pt 113 8))
		(line (pt 109 12)(pt 113 8))
	)
	(text "VCC" (rect 128 7 148 17)(font "Arial" (font_size 6)))
)
(pin
	(input)
	(rect -120 112 48 128)
	(text "INPUT" (rect 125 0 153 10)(font "Arial" (font_size 6)))
	(text "A1[15..0]" (rect 5 0 48 17)(font "Intel Clear" ))
	(pt 168 8)
	(drawing
		(line (pt 84 12)(pt 109 12))
		(line (pt 84 4)(pt 109 4))
		(line (pt 113 8)(pt 168 8))
		(line (pt 84 12)(pt 84 4))
		(line (pt 109 4)(pt 113 8))
		(line (pt 109 12)(pt 113 8))
	)
	(text "VCC" (rect 128 7 148 17)(font "Arial" (font_size 6)))
)
(pin
	(input)
	(rect -120 136 48 152)
	(text "INPUT" (rect 125 0 153 10)(font "Arial" (font_size 6)))
	(text "A2[15..0]" (rect 5 0 48 17)(font "Intel Clear" ))
	(pt 168 8)
	(drawing
		(line (pt 84 12)(pt 109 12))
		(line (pt 84 4)(pt 109 4))
		(line (pt 113 8)(pt 168 8))
		(line (pt 84 12)(pt 84 4))
		(line (pt 109 4)(pt 113 8))
		(line (pt 109 12)(pt 113 8))
	)
	(text "VCC" (rect 128 7 148 17)(font "Arial" (font_size 6)))
)
(pin
	(input)
	(rect -120 160 48 176)
	(text "INPUT" (rect 125 0 153 10)(font "Arial" (font_size 6)))
	(text "A3[15..0]" (rect 5 0 48 17)(font "Intel Clear" ))
	(pt 168 8)
	(drawing
		(line (pt 84 12)(pt 109 12))
		(line (pt 84 4)(pt 109 4))
		(line (pt 113 8)(pt 168 8))
		(line (pt 84 12)(pt 84 4))
		(line (pt 109 4)(pt 113 8))
		(line (pt 109 12)(pt 113 8))
	)
	(text "VCC" (rect 128 7 148 17)(font "Arial" (font_size 6)))
)
(pin
	(input)
	(rect -120 312 48 328)
	(text "INPUT" (rect 125 0 153 10)(font "Arial" (font_size 6)))
	(text "A4[15..0]" (rect 5 0 50 12)(font "Arial" ))
	(pt 168 8)
	(drawing
		(line (pt 84 12)(pt 109 12))
		(line (pt 84 4)(pt 109 4))
		(line (pt 113 8)(pt 168 8))
		(line (pt 84 12)(pt 84 4))
		(line (pt 109 4)(pt 113 8))
		(line (pt 109 12)(pt 113 8))
	)
	(text "VCC" (rect 128 7 148 17)(font "Arial" (font_size 6)))
)
(pin
	(input)
	(rect -120 336 48 352)
	(text "INPUT" (rect 125 0 153 10)(font "Arial" (font_size 6)))
	(text "A5[15..0]" (rect 5 0 48 17)(font "Intel Clear" ))
	(pt 168 8)
	(drawing
		(line (pt 84 12)(pt 109 12))
		(line (pt 84 4)(pt 109 4))
		(line (pt 113 8)(pt 168 8))
		(line (pt 84 12)(pt 84 4))
		(line (pt 109 4)(pt 113 8))
		(line (pt 109 12)(pt 113 8))
	)
	(text "VCC" (rect 128 7 148 17)(font "Arial" (font_size 6)))
)
(pin
	(input)
	(rect -120 360 48 376)
	(text "INPUT" (rect 125 0 153 10)(font "Arial" (font_size 6)))
	(text "A6[15..0]" (rect 5 0 48 17)(font "Intel Clear" ))
	(pt 168 8)
	(drawing
		(line (pt 84 12)(pt 109 12))
		(line (pt 84 4)(pt 109 4))
		(line (pt 113 8)(pt 168 8))
		(line (pt 84 12)(pt 84 4))
		(line (pt 109 4)(pt 113 8))
		(line (pt 109 12)(pt 113 8))
	)
	(text "VCC" (rect 128 7 148 17)(font "Arial" (font_size 6)))
)
(pin
	(input)
	(rect -120 384 48 400)
	(text "INPUT" (rect 125 0 153 10)(font "Arial" (font_size 6)))
	(text "A7[15..0]" (rect 5 0 48 17)(font "Intel Clear" ))
	(pt 168 8)
	(drawing
		(line (pt 84 12)(pt 109 12))
		(line (pt 84 4)(pt 109 4))
		(line (pt 113 8)(pt 168 8))
		(line (pt 84 12)(pt 84 4))
		(line (pt 109 4)(pt 113 8))
		(line (pt 109 12)(pt 113 8))
	)
	(text "VCC" (rect 128 7 148 17)(font "Arial" (font_size 6)))
)
(pin
	(input)
	(rect -104 472 64 488)
	(text "INPUT" (rect 125 0 153 10)(font "Arial" (font_size 6)))
	(text "selection0" (rect 5 0 54 12)(font "Arial" ))
	(pt 168 8)
	(drawing
		(line (pt 84 12)(pt 109 12))
		(line (pt 84 4)(pt 109 4))
		(line (pt 113 8)(pt 168 8))
		(line (pt 84 12)(pt 84 4))
		(line (pt 109 4)(pt 113 8))
		(line (pt 109 12)(pt 113 8))
	)
	(text "VCC" (rect 128 7 148 17)(font "Arial" (font_size 6)))
)
(pin
	(input)
	(rect -104 512 64 528)
	(text "INPUT" (rect 125 0 153 10)(font "Arial" (font_size 6)))
	(text "selection1" (rect 5 0 54 17)(font "Intel Clear" ))
	(pt 168 8)
	(drawing
		(line (pt 84 12)(pt 109 12))
		(line (pt 84 4)(pt 109 4))
		(line (pt 113 8)(pt 168 8))
		(line (pt 84 12)(pt 84 4))
		(line (pt 109 4)(pt 113 8))
		(line (pt 109 12)(pt 113 8))
	)
	(text "VCC" (rect 128 7 148 17)(font "Arial" (font_size 6)))
)
(pin
	(input)
	(rect -104 552 64 568)
	(text "INPUT" (rect 125 0 153 10)(font "Arial" (font_size 6)))
	(text "selection2" (rect 5 0 54 17)(font "Intel Clear" ))
	(pt 168 8)
	(drawing
		(line (pt 84 12)(pt 109 12))
		(line (pt 84 4)(pt 109 4))
		(line (pt 113 8)(pt 168 8))
		(line (pt 84 12)(pt 84 4))
		(line (pt 109 4)(pt 113 8))
		(line (pt 109 12)(pt 113 8))
	)
	(text "VCC" (rect 128 7 148 17)(font "Arial" (font_size 6)))
)
(pin
	(output)
	(rect 840 232 1016 248)
	(text "OUTPUT" (rect 1 0 39 10)(font "Arial" (font_size 6)))
	(text "Y[15..0]" (rect 90 0 130 12)(font "Arial" ))
	(pt 0 8)
	(drawing
		(line (pt 0 8)(pt 52 8))
		(line (pt 52 4)(pt 78 4))
		(line (pt 52 12)(pt 78 12))
		(line (pt 52 12)(pt 52 4))
		(line (pt 78 4)(pt 82 8))
		(line (pt 82 8)(pt 78 12))
		(line (pt 78 12)(pt 82 8))
	)
)
(symbol
	(rect 176 64 344 264)
	(text "sixteen_bits_4to1mux" (rect 5 0 135 19)(font "Intel Clear" (font_size 8)))
	(text "inst9" (rect 8 139 30 156)(font "Intel Clear" ))
	(port
		(pt 0 32)
		(input)
		(text "A0[15..0]" (rect 0 0 55 19)(font "Intel Clear" (font_size 8)))
		(text "A0[15..0]" (rect 21 19 76 38)(font "Intel Clear" (font_size 8)))
		(line (pt 0 32)(pt 16 32)(line_width 3))
	)
	(port
		(pt 0 56)
		(input)
		(text "A1[15..0]" (rect 0 0 55 19)(font "Intel Clear" (font_size 8)))
		(text "A1[15..0]" (rect 21 43 76 62)(font "Intel Clear" (font_size 8)))
		(line (pt 0 56)(pt 16 56)(line_width 3))
	)
	(port
		(pt 0 80)
		(input)
		(text "A2[15..0]" (rect 0 0 55 19)(font "Intel Clear" (font_size 8)))
		(text "A2[15..0]" (rect 21 67 76 86)(font "Intel Clear" (font_size 8)))
		(line (pt 0 80)(pt 16 80)(line_width 3))
	)
	(port
		(pt 0 104)
		(input)
		(text "A3[15..0]" (rect 0 0 55 19)(font "Intel Clear" (font_size 8)))
		(text "A3[15..0]" (rect 21 91 76 110)(font "Intel Clear" (font_size 8)))
		(line (pt 0 104)(pt 16 104)(line_width 3))
	)
	(port
		(pt 0 128)
		(input)
		(text "S0" (rect 0 0 16 19)(font "Intel Clear" (font_size 8)))
		(text "S0" (rect 21 115 37 134)(font "Intel Clear" (font_size 8)))
		(line (pt 0 128)(pt 16 128))
	)
	(port
		(pt 0 152)
		(input)
		(text "S1" (rect 0 0 16 19)(font "Intel Clear" (font_size 8)))
		(text "S1" (rect 21 139 37 158)(font "Intel Clear" (font_size 8)))
		(line (pt 0 152)(pt 16 152))
	)
	(port
		(pt 168 80)
		(output)
		(text "Y[15..0]" (rect 8 0 55 19)(font "Intel Clear" (font_size 8)))
		(text "Y[15..0]" (rect 104 64 151 83)(font "Intel Clear" (font_size 8)))
		(line (pt 168 80)(pt 152 80)(line_width 3))
	)
	(drawing
		(rectangle (rect 16 16 152 192))
	)
)
(symbol
	(rect 176 288 344 488)
	(text "sixteen_bits_4to1mux" (rect 5 0 135 19)(font "Intel Clear" (font_size 8)))
	(text "inst11" (rect 8 139 36 156)(font "Intel Clear" ))
	(port
		(pt 0 32)
		(input)
		(text "A0[15..0]" (rect 0 0 55 19)(font "Intel Clear" (font_size 8)))
		(text "A0[15..0]" (rect 21 19 76 38)(font "Intel Clear" (font_size 8)))
		(line (pt 0 32)(pt 16 32)(line_width 3))
	)
	(port
		(pt 0 56)
		(input)
		(text "A1[15..0]" (rect 0 0 55 19)(font "Intel Clear" (font_size 8)))
		(text "A1[15..0]" (rect 21 43 76 62)(font "Intel Clear" (font_size 8)))
		(line (pt 0 56)(pt 16 56)(line_width 3))
	)
	(port
		(pt 0 80)
		(input)
		(text "A2[15..0]" (rect 0 0 55 19)(font "Intel Clear" (font_size 8)))
		(text "A2[15..0]" (rect 21 67 76 86)(font "Intel Clear" (font_size 8)))
		(line (pt 0 80)(pt 16 80)(line_width 3))
	)
	(port
		(pt 0 104)
		(input)
		(text "A3[15..0]" (rect 0 0 55 19)(font "Intel Clear" (font_size 8)))
		(text "A3[15..0]" (rect 21 91 76 110)(font "Intel Clear" (font_size 8)))
		(line (pt 0 104)(pt 16 104)(line_width 3))
	)
	(port
		(pt 0 128)
		(input)
		(text "S0" (rect 0 0 16 19)(font "Intel Clear" (font_size 8)))
		(text "S0" (rect 21 115 37 134)(font "Intel Clear" (font_size 8)))
		(line (pt 0 128)(pt 16 128))
	)
	(port
		(pt 0 152)
		(input)
		(text "S1" (rect 0 0 16 19)(font "Intel Clear" (font_size 8)))
		(text "S1" (rect 21 139 37 158)(font "Intel Clear" (font_size 8)))
		(line (pt 0 152)(pt 16 152))
	)
	(port
		(pt 168 80)
		(output)
		(text "Y[15..0]" (rect 8 0 55 19)(font "Intel Clear" (font_size 8)))
		(text "Y[15..0]" (rect 104 64 151 83)(font "Intel Clear" (font_size 8)))
		(line (pt 168 80)(pt 152 80)(line_width 3))
	)
	(drawing
		(rectangle (rect 16 16 152 192))
	)
)
(symbol
	(rect 640 184 792 304)
	(text "sixteen_bits_2to1mux" (rect 5 0 135 19)(font "Intel Clear" (font_size 8)))
	(text "inst" (rect 8 75 24 92)(font "Intel Clear" ))
	(port
		(pt 0 32)
		(input)
		(text "A[15..0]" (rect 0 0 47 19)(font "Intel Clear" (font_size 8)))
		(text "A[15..0]" (rect 21 19 68 38)(font "Intel Clear" (font_size 8)))
		(line (pt 0 32)(pt 16 32)(line_width 3))
	)
	(port
		(pt 0 56)
		(input)
		(text "B[15..0]" (rect 0 0 47 19)(font "Intel Clear" (font_size 8)))
		(text "B[15..0]" (rect 21 43 68 62)(font "Intel Clear" (font_size 8)))
		(line (pt 0 56)(pt 16 56)(line_width 3))
	)
	(port
		(pt 0 80)
		(input)
		(text "selection" (rect 0 0 51 19)(font "Intel Clear" (font_size 8)))
		(text "selection" (rect 21 67 72 86)(font "Intel Clear" (font_size 8)))
		(line (pt 0 80)(pt 16 80))
	)
	(port
		(pt 152 56)
		(output)
		(text "Y[15..0]" (rect 0 0 47 19)(font "Intel Clear" (font_size 8)))
		(text "Y[15..0]" (rect 88 40 135 59)(font "Intel Clear" (font_size 8)))
		(line (pt 152 56)(pt 136 56)(line_width 3))
	)
	(drawing
		(rectangle (rect 16 16 136 104))
	)
)
(connector
	(pt 176 344)
	(pt 48 344)
	(bus)
)
(connector
	(pt 176 368)
	(pt 48 368)
	(bus)
)
(connector
	(pt 176 392)
	(pt 48 392)
	(bus)
)
(connector
	(pt 48 320)
	(pt 176 320)
	(bus)
)
(connector
	(pt 176 416)
	(pt 120 416)
)
(connector
	(pt 120 480)
	(pt 64 480)
)
(connector
	(pt 176 440)
	(pt 144 440)
)
(connector
	(pt 144 520)
	(pt 64 520)
)
(connector
	(pt 64 560)
	(pt 456 560)
)
(connector
	(pt 432 368)
	(pt 344 368)
	(bus)
)
(connector
	(pt 120 192)
	(pt 176 192)
)
(connector
	(pt 144 216)
	(pt 176 216)
)
(connector
	(pt 432 144)
	(pt 344 144)
	(bus)
)
(connector
	(pt 432 216)
	(pt 432 144)
	(bus)
)
(connector
	(pt 120 192)
	(pt 120 416)
)
(connector
	(pt 120 416)
	(pt 120 480)
)
(connector
	(pt 144 216)
	(pt 144 440)
)
(connector
	(pt 144 440)
	(pt 144 520)
)
(connector
	(pt 640 216)
	(pt 432 216)
	(bus)
)
(connector
	(pt 456 264)
	(pt 640 264)
)
(connector
	(pt 456 560)
	(pt 456 264)
)
(connector
	(pt 432 240)
	(pt 640 240)
	(bus)
)
(connector
	(pt 432 368)
	(pt 432 240)
	(bus)
)
(connector
	(pt 48 96)
	(pt 176 96)
	(bus)
)
(connector
	(pt 48 120)
	(pt 176 120)
	(bus)
)
(connector
	(pt 48 144)
	(pt 176 144)
	(bus)
)
(connector
	(pt 48 168)
	(pt 176 168)
	(bus)
)
(connector
	(pt 792 240)
	(pt 840 240)
	(bus)
)
(junction (pt 120 416))
(junction (pt 144 440))
