Flow report for Dff_asynchronous_synchronous
Wed Nov 11 21:47:32 2020
Quartus Prime Version 18.1.0 Build 625 09/12/2018 SJ Lite Edition


---------------------
; Table of Contents ;
---------------------
  1. Legal Notice
  2. Flow Summary
  3. Flow Settings
  4. Flow Non-Default Global Settings
  5. Flow Elapsed Time
  6. Flow OS Summary
  7. Flow Log
  8. Flow Messages
  9. Flow Suppressed Messages



----------------
; Legal Notice ;
----------------
Copyright (C) 2018  Intel Corporation. All rights reserved.
Your use of Intel Corporation's design tools, logic functions 
and other software and tools, and its AMPP partner logic 
functions, and any output files from any of the foregoing 
(including device programming or simulation files), and any 
associated documentation or information are expressly subject 
to the terms and conditions of the Intel Program License 
Subscription Agreement, the Intel Quartus Prime License Agreement,
the Intel FPGA IP License Agreement, or other applicable license
agreement, including, without limitation, that your use is for
the sole purpose of programming logic devices manufactured by
Intel and sold by Intel or its authorized distributors.  Please
refer to the applicable agreement for further details.



+----------------------------------------------------------------------------------+
; Flow Summary                                                                     ;
+------------------------------------+---------------------------------------------+
; Flow Status                        ; Successful - Wed Nov 11 21:47:32 2020       ;
; Quartus Prime Version              ; 18.1.0 Build 625 09/12/2018 SJ Lite Edition ;
; Revision Name                      ; Dff_asynchronous_synchronous                ;
; Top-level Entity Name              ; Dff_synchronous                             ;
; Family                             ; Cyclone IV E                                ;
; Device                             ; EP4CE115F29C7                               ;
; Timing Models                      ; Final                                       ;
; Total logic elements               ; 1 / 114,480 ( < 1 % )                       ;
;     Total combinational functions  ; 1 / 114,480 ( < 1 % )                       ;
;     Dedicated logic registers      ; 1 / 114,480 ( < 1 % )                       ;
; Total registers                    ; 1                                           ;
; Total pins                         ; 4 / 529 ( < 1 % )                           ;
; Total virtual pins                 ; 0                                           ;
; Total memory bits                  ; 0 / 3,981,312 ( 0 % )                       ;
; Embedded Multiplier 9-bit elements ; 0 / 532 ( 0 % )                             ;
; Total PLLs                         ; 0 / 4 ( 0 % )                               ;
+------------------------------------+---------------------------------------------+


+--------------------------------------------------+
; Flow Settings                                    ;
+-------------------+------------------------------+
; Option            ; Setting                      ;
+-------------------+------------------------------+
; Start date & time ; 11/11/2020 21:43:38          ;
; Main task         ; Compilation                  ;
; Revision Name     ; Dff_asynchronous_synchronous ;
+-------------------+------------------------------+


+------------------------------------------------------------------------------------------------------------------------------------------------+
; Flow Non-Default Global Settings                                                                                                               ;
+-------------------------------------+----------------------------------------+------------------------------+-----------------+----------------+
; Assignment Name                     ; Value                                  ; Default Value                ; Entity Name     ; Section Id     ;
+-------------------------------------+----------------------------------------+------------------------------+-----------------+----------------+
; COMPILER_SIGNATURE_ID               ; 738931038423.160510221703048           ; --                           ; --              ; --             ;
; EDA_OUTPUT_DATA_FORMAT              ; Verilog Hdl                            ; --                           ; --              ; eda_simulation ;
; EDA_SIMULATION_TOOL                 ; ModelSim-Altera (Verilog)              ; <None>                       ; --              ; --             ;
; EDA_TIME_SCALE                      ; 1 ps                                   ; --                           ; --              ; eda_simulation ;
; MAX_CORE_JUNCTION_TEMP              ; 85                                     ; --                           ; --              ; --             ;
; MIN_CORE_JUNCTION_TEMP              ; 0                                      ; --                           ; --              ; --             ;
; NOMINAL_CORE_SUPPLY_VOLTAGE         ; 1.2V                                   ; --                           ; --              ; --             ;
; PARTITION_COLOR                     ; -- (Not supported for targeted family) ; --                           ; Dff_synchronous ; Top            ;
; PARTITION_FITTER_PRESERVATION_LEVEL ; -- (Not supported for targeted family) ; --                           ; Dff_synchronous ; Top            ;
; PARTITION_NETLIST_TYPE              ; -- (Not supported for targeted family) ; --                           ; Dff_synchronous ; Top            ;
; POWER_BOARD_THERMAL_MODEL           ; None (CONSERVATIVE)                    ; --                           ; --              ; --             ;
; POWER_PRESET_COOLING_SOLUTION       ; 23 MM HEAT SINK WITH 200 LFPM AIRFLOW  ; --                           ; --              ; --             ;
; PROJECT_OUTPUT_DIRECTORY            ; output_files                           ; --                           ; --              ; --             ;
; TOP_LEVEL_ENTITY                    ; Dff_synchronous                        ; Dff_asynchronous_synchronous ; --              ; --             ;
+-------------------------------------+----------------------------------------+------------------------------+-----------------+----------------+


+--------------------------------------------------------------------------------------------------------------------------+
; Flow Elapsed Time                                                                                                        ;
+----------------------+--------------+-------------------------+---------------------+------------------------------------+
; Module Name          ; Elapsed Time ; Average Processors Used ; Peak Virtual Memory ; Total CPU Time (on all processors) ;
+----------------------+--------------+-------------------------+---------------------+------------------------------------+
; Analysis & Synthesis ; 00:00:16     ; 1.0                     ; 4735 MB             ; 00:00:29                           ;
; Fitter               ; 00:00:15     ; 1.0                     ; 5422 MB             ; 00:00:19                           ;
; Assembler            ; 00:00:06     ; 1.0                     ; 4688 MB             ; 00:00:05                           ;
; Timing Analyzer      ; 00:00:03     ; 1.0                     ; 4818 MB             ; 00:00:02                           ;
; EDA Netlist Writer   ; 00:00:01     ; 1.0                     ; 4651 MB             ; 00:00:01                           ;
; EDA Netlist Writer   ; 00:00:00     ; 1.0                     ; 4635 MB             ; 00:00:01                           ;
; EDA Netlist Writer   ; 00:00:01     ; 1.0                     ; 4644 MB             ; 00:00:01                           ;
; EDA Netlist Writer   ; 00:00:00     ; 1.0                     ; 4635 MB             ; 00:00:01                           ;
; EDA Netlist Writer   ; 00:00:01     ; 1.0                     ; 4649 MB             ; 00:00:01                           ;
; Total                ; 00:00:43     ; --                      ; --                  ; 00:01:00                           ;
+----------------------+--------------+-------------------------+---------------------+------------------------------------+


+------------------------------------------------------------------------------------+
; Flow OS Summary                                                                    ;
+----------------------+------------------+------------+------------+----------------+
; Module Name          ; Machine Hostname ; OS Name    ; OS Version ; Processor type ;
+----------------------+------------------+------------+------------+----------------+
; Analysis & Synthesis ; LAPTOP-GJ7DRNVD  ; Windows 10 ; 10.0       ; x86_64         ;
; Fitter               ; LAPTOP-GJ7DRNVD  ; Windows 10 ; 10.0       ; x86_64         ;
; Assembler            ; LAPTOP-GJ7DRNVD  ; Windows 10 ; 10.0       ; x86_64         ;
; Timing Analyzer      ; LAPTOP-GJ7DRNVD  ; Windows 10 ; 10.0       ; x86_64         ;
; EDA Netlist Writer   ; LAPTOP-GJ7DRNVD  ; Windows 10 ; 10.0       ; x86_64         ;
; EDA Netlist Writer   ; LAPTOP-GJ7DRNVD  ; Windows 10 ; 10.0       ; x86_64         ;
; EDA Netlist Writer   ; LAPTOP-GJ7DRNVD  ; Windows 10 ; 10.0       ; x86_64         ;
; EDA Netlist Writer   ; LAPTOP-GJ7DRNVD  ; Windows 10 ; 10.0       ; x86_64         ;
; EDA Netlist Writer   ; LAPTOP-GJ7DRNVD  ; Windows 10 ; 10.0       ; x86_64         ;
+----------------------+------------------+------------+------------+----------------+


------------
; Flow Log ;
------------
quartus_map --read_settings_files=on --write_settings_files=off Dff_asynchronous_synchronous -c Dff_asynchronous_synchronous
quartus_fit --read_settings_files=off --write_settings_files=off Dff_asynchronous_synchronous -c Dff_asynchronous_synchronous
quartus_asm --read_settings_files=off --write_settings_files=off Dff_asynchronous_synchronous -c Dff_asynchronous_synchronous
quartus_sta Dff_asynchronous_synchronous -c Dff_asynchronous_synchronous
quartus_eda --read_settings_files=off --write_settings_files=off Dff_asynchronous_synchronous -c Dff_asynchronous_synchronous
quartus_eda --gen_testbench --tool=modelsim_oem --format=verilog --write_settings_files=off Dff_asynchronous_synchronous -c Dff_asynchronous_synchronous --vector_source=D:/DigitalDesignlabs/Dff_asynchronous_synchronous/Waveform1.vwf --testbench_file=D:/DigitalDesignlabs/Dff_asynchronous_synchronous/simulation/qsim/Waveform1.vwf.vt
quartus_eda --write_settings_files=off --simulation=on --functional=on --flatten_buses=off --tool=modelsim_oem --format=verilog --output_directory=D:/DigitalDesignlabs/Dff_asynchronous_synchronous/simulation/qsim/ Dff_asynchronous_synchronous -c Dff_asynchronous_synchronous
quartus_eda --gen_testbench --tool=modelsim_oem --format=verilog --write_settings_files=off Dff_asynchronous_synchronous -c Dff_asynchronous_synchronous --vector_source=D:/DigitalDesignlabs/Dff_asynchronous_synchronous/Waveform1.vwf --testbench_file=D:/DigitalDesignlabs/Dff_asynchronous_synchronous/simulation/qsim/Waveform1.vwf.vt
quartus_eda --write_settings_files=off --simulation=on --functional=off --flatten_buses=off --timescale=1ps --tool=modelsim_oem --format=verilog --output_directory=D:/DigitalDesignlabs/Dff_asynchronous_synchronous/simulation/qsim/ Dff_asynchronous_synchronous -c Dff_asynchronous_synchronous



