{
	"partitions" : [
		{
			"name" : "Top",
			"pins" : [
				{
					"name" : "q_signal[0]",
					"strict" : false
				},
				{
					"name" : "q_signal[1]",
					"strict" : false
				},
				{
					"name" : "sw_out",
					"strict" : false
				},
				{
					"name" : "j",
					"strict" : false
				},
				{
					"name" : "k",
					"strict" : false
				},
				{
					"name" : "sw_in",
					"strict" : false
				},
				{
					"name" : "clk_10ms",
					"strict" : false
				},
				{
					"name" : "reset",
					"strict" : false
				}
			]
		}
	]
}